<svg version="1.1" id="Layer_1" xmlns="http://www.w3.org/2000/svg" xmlns:xlink="http://www.w3.org/1999/xlink" x="0px" y="0px"
	  viewBox="0 0 60 60" enable-background="new 0 0 60 60" xml:space="preserve">
<g>
	<polygon fill="#808693"  points="30,41.804 11.807,23.61 13.221,20.196 30,36.976 46.779,20.196 48.193,23.61 	"/>
</g>
</svg>
